Monkeylearn in R 소개 - 쉽게 텍스트 분석하기
…
## # A tibble: 6 × 4
##   category_id probability              label
##         <int>       <dbl>              <chr>
## 1    18313097       0.130               Pets
## 2    18313108       0.239               Dogs
## 3    18313113       0.082           Dog Food
## 4    18314739       0.113        Cell Phones
## 5    18314740       0.186        Accessories
## 6    18314741       0.094 Cases & Protectors
## # ... with 1 more variables: text_md5 <chr>

monkeylearn_classifiers(private=FALSE)

## # A tibble: 39 × 19
##    classifier_id                                              name
##            <chr>                                             <chr>
## 1    cl_AbW44A2X                                     Asbestos Data
## 2    cl_nLW3yR6m      Telcos -  Customer Support Ticket Classifier
## 3    cl_4LqLD7cN  Telcos - Customer Complaint Classifier (Twitter)
## 4    cl_rtdVEb8p            Telcos - Sentiment analysis (Facebook)
## 5    cl_szya8upj Telcos - Customer Complaint Classifier (Facebook)
## 6    cl_uEzzFRHh          Telcos - Needs Help Detection (Facebook)
## 7    cl_gYDZjEnS                       NPS SaaS Product Classifier
## 8    cl_zSDSt8QP                Outbound Sales Response Classifier
## 9    cl_GhPhiVYE     E-commerce Customer Support Ticket Classifier
## 10   cl_VCykxryo                         News classifier (spanish)
## # ... with 29 more rows, and 17 more variables: description <chr>,
## #   train_state <chr>, train_job_id <lgl>, language <chr>,
## #   ngram_range <chr>, use_stemmer <lgl>, stop_words <chr>,
## #   max_features <int>, strip_stopwords <lgl>, is_multilabel <lgl>,
## #   is_twitter_data <lgl>, normalize_weights <lgl>, classifier <chr>,
## #   industry <chr>, classifier_type <chr>, text_type <chr>,
## #   permissions <chr>
…
