환자 불편 사항 상담 자료 Word Vector로 분석해보기 (Sementic Analysis)
…
  temp_b <- temp %>%
    html_nodes(xpath='//table[@class="boardView mgT10"]/tbody/tr/td') %>%
    html_text()

  setTxtProgressBar(pb, i)

  temp_d <- data_frame(title=temp_t, id=temp_b[1], rec=temp_b[2], cat=temp_b[3], main=temp_b[4], man=temp_b[5], ans=temp_b[6])
  articles <- bind_rows(articles, temp_d)
}

각 글을 열어서 제목, 식별자, 등록일자, 분류, 상담 내용, 답변일자, 답변을 저장합니다. 사이트가 느려서 진행 바를 추가했습니다. 생각보다 모아오는 데 오래 걸려서 후회했습니다. 수집 결과를 볼까요?

as_tibble(articles)

## # A tibble: 1,758 × 7
##                                                            title
##                                                            <chr>
## 1  피부과 패키지 결제후,병원 원장이 잠적 및 무단 폐업하였습니다.
## 2                      자동차보험에 의한 치료에 대한 안내 불성실
## 3                         바가지 쓴 금액 다시 돌려받고 싶습니다.
## 4                               이빨 뽑은 후 금이 돌려 주지 않음
## 5                 2011년 #####회사의 제대혈을 계약했습니다.
## 6                             ###한의원 매선침 치료 불만 신고
## 7                                    사건2017-##### 답변의답변
## 8               한의원에서 다이어트 상담비로 3만원을 요구합니다.
## 9                                                           오진
## 10                                               진료비 부당청구
## # ... with 1,748 more rows, and 6 more variables: id <chr>, rec <chr>,
## #   cat <chr>, main <chr>, man <chr>, ans <chr>
…
