환자 불편 상담에 관한 Latent Dirichlet Allocation 분석
…
두 집단에서 출현확률의 차이로 비교해보면, topic 1은 어머님, 브릿지가, topic 2는 항생제, 흉터가 중요하게 나타납니다. 위의 결과와 종합하여 생각해보면, topic 1은 진료 관련 상담, topic 2는 진료 서비스 및 후유증 등에 관한 상담인 것으로 생각해볼 수 있습니다. 실제로 각 텍스트가 어느 집단으로 분류되었는지 볼까요?

q_documents <- tidy(q_lda, matrix="gamma")
q_documents

## # A tibble: 564 × 3
##    document topic        gamma
##       <chr> <int>        <dbl>
## 1         1     1 0.0010958588
## 2         2     1 0.0014860737
## 3         3     1 0.9997471939
## 4         4     1 0.9986573537
## 5         5     1 0.9983361908
## 6         6     1 0.0015409439
## 7         7     1 0.0004532204
## 8         8     1 0.0001689069
## 9         9     1 0.0013872770
## 10       10     1 0.7181085591
## # ... with 554 more rows

tidy(dtm) %>%
  filter(document == 8) %>%
  arrange(desc(count))

## # A tibble: 173 × 3
##    document   term count
##       <chr>  <chr> <dbl>
## 1         8   수술    12
## 2         8 아버지     5
## 3         8   의사     5
## 4         8   진료     5
## 5         8   금액     4
## 6         8 보호자     4
## 7         8   안하     4
## 8         8   지불     4
## 9         8   거부     3
## 10        8   당일     3
## # ... with 163 more rows
…
